{
  "routes": [
    {
      "method": "GET",
      "path": "/connectors",
      "handler": "connector.find",
      "config": {
        "policies": []
      }
    },
    {
      "method": "GET",
      "path": "/connectors/count",
      "handler": "connector.count",
      "config": {
        "policies": []
      }
    },
    {
      "method": "GET",
      "path": "/connectors/:id",
      "handler": "connector.findOne",
      "config": {
        "policies": []
      }
    },
    {
      "method": "POST",
      "path": "/connectors",
      "handler": "connector.create",
      "config": {
        "policies": []
      }
    },
    {
      "method": "PUT",
      "path": "/connectors/:id",
      "handler": "connector.update",
      "config": {
        "policies": []
      }
    },
    {
      "method": "DELETE",
      "path": "/connectors/:id",
      "handler": "connector.delete",
      "config": {
        "policies": []
      }
    }
  ]
}
